{"total":200,"per_page":15,"current_page":1,"last_page":14,"next_page_url":"http:\/\/vuetable.ratiw.net\/api\/users?page=2","prev_page_url":null,"from":1,"to":15,"data":[{"id":1,"name":"Mrs. Dorris Paucek","nickname":"eum","email":"emiliano47@example.com","birthdate":"2012-11-11","gender":"M","group_id":"1","created_at":"2016-08-20 05:24:32","updated_at":"2016-08-20 05:24:32","group":null,"address":{"id":1,"user_id":"1","line1":"244 Webster Flats Suite 758\nPatrickville, AL 42356","line2":"Ecuador","zipcode":"68886","mobile":"1-187-739-6732x0538","fax":"317-398-7451x27805"}},{"id":2,"name":"Mr. Emery Dibbert","nickname":"voluptatum","email":"zheller@example.org","birthdate":"1997-12-02","gender":"F","group_id":"4","created_at":"2016-08-20 05:24:32","updated_at":"2016-08-20 05:24:32","group":null,"address":{"id":2,"user_id":"2","line1":"1481 Kaitlin Drive\nGeneberg, NC 52386-8834","line2":"San Marino","zipcode":"14645-2873","mobile":"01835975877","fax":"(727)370-2989"}},{"id":3,"name":"Ursula Rogahn","nickname":"et","email":"mariam14@example.org","birthdate":"2012-03-12","gender":"F","group_id":"2","created_at":"2016-08-20 05:24:32","updated_at":"2016-08-20 05:24:32","group":null,"address":{"id":3,"user_id":"3","line1":"2991 Batz Village Suite 278\nWuckertport, ND 08269-5751","line2":"Spain","zipcode":"96335-9896","mobile":"1-115-300-6245x046","fax":"483.953.1724"}},{"id":4,"name":"Dr. Otto Fisher PhD","nickname":"delectus","email":"ulises90@example.org","birthdate":"2015-06-06","gender":"M","group_id":"5","created_at":"2016-08-20 05:24:32","updated_at":"2016-08-20 05:24:32","group":null,"address":{"id":4,"user_id":"4","line1":"1966 Spencer Mills Suite 002\nWest Elinorchester, OK 05537","line2":"Costa Rica","zipcode":"51787","mobile":"08708107582","fax":"(149)130-9098x637"}},{"id":5,"name":"Mrs. Tamia Nicolas MD","nickname":"aspernatur","email":"olangosh@example.org","birthdate":"2014-05-14","gender":"F","group_id":"4","created_at":"2016-08-20 05:24:32","updated_at":"2016-08-20 05:24:32","group":null,"address":{"id":5,"user_id":"5","line1":"93719 Aniyah Mount Suite 504\nEast Delpha, KY 69475","line2":"Venezuela","zipcode":"56847","mobile":"941.762.2779","fax":"536.356.0815"}},{"id":6,"name":"Dr. Gabe Hansen","nickname":"eum","email":"zoconner@example.org","birthdate":"1999-04-13","gender":"M","group_id":"5","created_at":"2016-08-20 05:24:32","updated_at":"2016-08-20 05:24:32","group":null,"address":{"id":6,"user_id":"6","line1":"5709 Kallie Glen\nMaryamchester, ME 64866","line2":"Cameroon","zipcode":"40925-4421","mobile":"1-144-338-5675x25959","fax":"654.239.2034"}},{"id":7,"name":"Prof. Reed Hills","nickname":"quis","email":"angel.roob@example.com","birthdate":"2011-08-24","gender":"M","group_id":"4","created_at":"2016-08-20 05:24:32","updated_at":"2016-08-20 05:24:32","group":null,"address":{"id":7,"user_id":"7","line1":"2570 Antonietta Highway\nPort Elinore, AZ 36894-1626","line2":"Bermuda","zipcode":"94904-4632","mobile":"1-818-120-1069","fax":"293-637-2012x002"}},{"id":8,"name":"Golden Mante","nickname":"maxime","email":"smith.piper@example.net","birthdate":"2002-05-18","gender":"F","group_id":"1","created_at":"2016-08-20 05:24:32","updated_at":"2016-08-20 05:24:32","group":null,"address":{"id":8,"user_id":"8","line1":"07124 Juliet Junction\nSouth Tremayne, OR 51641","line2":"Chile","zipcode":"82371","mobile":"(282)471-6623","fax":"(690)387-0850"}},{"id":9,"name":"Felicita Roberts","nickname":"non","email":"ljakubowski@example.org","birthdate":"2001-04-17","gender":"F","group_id":"1","created_at":"2016-08-20 05:24:32","updated_at":"2016-08-20 05:24:32","group":null,"address":{"id":9,"user_id":"9","line1":"129 Kohler Crossing\nHartmannmouth, MT 73718-6964","line2":"United Kingdom","zipcode":"99928","mobile":"+28(9)5462301299","fax":"1-971-374-3213x919"}},{"id":10,"name":"Verona Reichel","nickname":"dolor","email":"hammes.lucio@example.org","birthdate":"2003-07-20","gender":"F","group_id":"4","created_at":"2016-08-20 05:24:32","updated_at":"2016-08-20 05:24:32","group":null,"address":{"id":10,"user_id":"10","line1":"17781 Hamill View\nNorth Cindy, VA 03468","line2":"Armenia","zipcode":"94962","mobile":"09896579782","fax":"(803)137-2600x0785"}},{"id":11,"name":"Emmett Runolfsdottir","nickname":"voluptas","email":"magnus59@example.com","birthdate":"2004-09-12","gender":"F","group_id":"2","created_at":"2016-08-20 05:24:32","updated_at":"2016-08-20 05:24:32","group":null,"address":{"id":11,"user_id":"11","line1":"2953 Delphine Key Suite 440\nPort Kelli, AZ 74333","line2":"Burkina Faso","zipcode":"89565","mobile":"04847641314","fax":"+98(5)1057639692"}},{"id":12,"name":"Mackenzie Lindgren","nickname":"voluptas","email":"silas.becker@example.com","birthdate":"1999-05-23","gender":"M","group_id":"5","created_at":"2016-08-20 05:24:32","updated_at":"2016-08-20 05:24:32","group":null,"address":{"id":12,"user_id":"12","line1":"04798 Clementine Parkway Suite 595\nNew Katheryn, MD 34371-6779","line2":"Marshall Islands","zipcode":"98743","mobile":"149.599.9495","fax":"732-166-0108x523"}},{"id":13,"name":"Candice Cartwright","nickname":"ducimus","email":"funk.jennie@example.org","birthdate":"2008-09-23","gender":"M","group_id":"2","created_at":"2016-08-20 05:24:32","updated_at":"2016-08-20 05:24:32","group":null,"address":{"id":13,"user_id":"13","line1":"122 Johnson Pine\nWest Erin, UT 11490-6440","line2":"Panama","zipcode":"43347-4349","mobile":"1-218-549-8551","fax":"+93(1)6286771915"}},{"id":14,"name":"German Nicolas","nickname":"tempora","email":"nichole.gusikowski@example.net","birthdate":"1994-10-22","gender":"M","group_id":"4","created_at":"2016-08-20 05:24:32","updated_at":"2016-08-20 05:24:32","group":null,"address":{"id":14,"user_id":"14","line1":"9774 Giuseppe Bypass Apt. 487\nWest Ervinberg, AZ 18605","line2":"Nicaragua","zipcode":"83017","mobile":"1-960-832-2962x39846","fax":"08792244610"}},{"id":15,"name":"Oma Pfannerstill","nickname":"at","email":"salvador.lowe@example.net","birthdate":"1989-02-14","gender":"M","group_id":"2","created_at":"2016-08-20 05:24:32","updated_at":"2016-08-20 05:24:32","group":null,"address":{"id":15,"user_id":"15","line1":"652 Claud Spur\nEvangelineport, MA 07910","line2":"Cambodia","zipcode":"26033","mobile":"(784)102-4950x8546","fax":"464.341.9857x057"}}]}